{
  "_class": "group",
  "do_objectID": "1367B27F-0AC4-4B6C-A41E-18B7C8048C8D",
  "exportOptions": {
    "_class": "exportOptions",
    "exportFormats": [
    ],
    "includedLayerIds": [
    ],
    "layerOptions": 0,
    "shouldTrim": false
  },
  "frame": {
    "_class": "rect",
    "constrainProportions": false,
    "height": 440,
    "width": 220,
    "x": 0,
    "y": 0
  },
  "hasClickThrough": false,
  "isFlippedHorizontal": false,
  "isFlippedVertical": false,
  "isLocked": false,
  "isVisible": true,
  "layerListExpandedType": 2,
  "layers": [
    {
      "class": "symbolInstance",
      "id": "D2531A9D-5224-487C-894C-20BA98E730FC"
    },
    {
      "class": "symbolInstance",
      "id": "4F1576C8-72A8-413D-B91C-E507FB4A84C9"
    },
    {
      "class": "symbolInstance",
      "id": "6919A1FE-EE3B-40D0-8931-050013B23A1A"
    },
    {
      "class": "symbolInstance",
      "id": "0255B992-A9B9-4C6A-A4A7-8C21089B3CB8"
    },
    {
      "class": "symbolInstance",
      "id": "E8B025E0-6C7C-4E2C-8060-3ACA7F2C03DE"
    },
    {
      "class": "symbolInstance",
      "id": "FEF29160-6C3B-44D7-B381-7B4AEA2DCFD7"
    },
    {
      "class": "symbolInstance",
      "id": "E01802E5-5F8F-40EC-BE76-37FB037B5488"
    },
    {
      "class": "symbolInstance",
      "id": "E67FDDAF-1B02-4183-8785-A780A41CC38B"
    },
    {
      "class": "symbolInstance",
      "id": "5E56A000-F152-4F94-8DC1-19132F1DBCFE"
    },
    {
      "class": "group",
      "id": "AC729E5B-7198-4C46-9443-2CF0AE834589"
    },
    {
      "class": "symbolInstance",
      "id": "B49BA6F9-C92A-4095-934E-867A495D6EE0"
    },
    {
      "class": "symbolInstance",
      "id": "2CDC0279-161F-4B75-81E0-0328F0150A35"
    }
  ],
  "name": "top-aligned",
  "nameIsFixed": true,
  "resizingConstraint": 11,
  "resizingType": 0,
  "rotation": 0,
  "shouldBreakMaskChain": false,
  "style": {
    "_class": "style",
    "endDecorationType": 0,
    "miterLimit": 10,
    "startDecorationType": 0
  }
}