{
  "_class": "shapePath",
  "booleanOperation": -1,
  "do_objectID": "D46F4447-17CC-431B-B6DE-96803C96D134",
  "edited": true,
  "exportOptions": {
    "_class": "exportOptions",
    "exportFormats": [
    ],
    "includedLayerIds": [
    ],
    "layerOptions": 0,
    "shouldTrim": false
  },
  "frame": {
    "_class": "rect",
    "constrainProportions": false,
    "height": 16,
    "width": 15,
    "x": 0,
    "y": 0
  },
  "isFlippedHorizontal": false,
  "isFlippedVertical": false,
  "isLocked": false,
  "isVisible": true,
  "layerListExpandedType": 0,
  "name": "Path",
  "nameIsFixed": false,
  "path": {
    "_class": "path",
    "isClosed": true,
    "pointRadiusBehaviour": 1,
    "points": [
      {
        "_class": "curvePoint",
        "cornerRadius": 0,
        "curveFrom": "{0.36599330814539843, 0.87500000044937365}",
        "curveMode": 1,
        "curveTo": "{0.36599330814539843, 0.87500000044937365}",
        "hasCurveFrom": false,
        "hasCurveTo": false,
        "point": "{0.36599330814539843, 0.87500000044937365}"
      },
      {
        "_class": "curvePoint",
        "cornerRadius": 0,
        "curveFrom": "{0.10981603108683971, 0.87499999999999967}",
        "curveMode": 4,
        "curveTo": "{0.13156126002860957, 0.87499999999999967}",
        "hasCurveFrom": true,
        "hasCurveTo": false,
        "point": "{0.13156126002860957, 0.87499999999999967}"
      },
      {
        "_class": "curvePoint",
        "cornerRadius": 0,
        "curveFrom": "{0.0052793891799963032, 0.82738978484252879}",
        "curveMode": 3,
        "curveTo": "{0.088410003178253857, 0.8698767867344005}",
        "hasCurveFrom": true,
        "hasCurveTo": true,
        "point": "{0.069258749675331938, 0.86008882409734588}"
      },
      {
        "_class": "curvePoint",
        "cornerRadius": 0,
        "curveFrom": "{0.078955541220183362, 0.57904926188777694}",
        "curveMode": 3,
        "curveTo": "{-0.018692346180528296, 0.75159352996187767}",
        "hasCurveFrom": true,
        "hasCurveTo": true,
        "point": "{0.015716380163762086, 0.69079315044762057}"
      },
      {
        "_class": "curvePoint",
        "cornerRadius": 0,
        "curveFrom": "{0.14737282779272409, 0.35346671993017109}",
        "curveMode": 3,
        "curveTo": "{0.11576903299882386, 0.49922305547429036}",
        "hasCurveFrom": true,
        "hasCurveTo": true,
        "point": "{0.12615685690670481, 0.45131453192627174}"
      },
      {
        "_class": "curvePoint",
        "cornerRadius": 0,
        "curveFrom": "{0.43184339438567909, 0.066130176181203676}",
        "curveMode": 4,
        "curveTo": "{0.18846505957825113, 0.10749872651071721}",
        "hasCurveFrom": true,
        "hasCurveTo": true,
        "point": "{0.43200454261205756, 0.067914718109992972}"
      },
      {
        "_class": "curvePoint",
        "cornerRadius": 0,
        "curveFrom": "{0.43176115470992227, 0.027982203137500002}",
        "curveMode": 3,
        "curveTo": "{0.43176115470992227, 0.064324214940984337}",
        "hasCurveFrom": true,
        "hasCurveTo": true,
        "point": "{0.43176115470992227, 0.0625}"
      },
      {
        "_class": "curvePoint",
        "cornerRadius": 0,
        "curveFrom": "{0.53385157995921884, 0}",
        "curveMode": 2,
        "curveTo": "{0.46120642258967326, 0}",
        "hasCurveFrom": true,
        "hasCurveTo": true,
        "point": "{0.49752900127444605, 0}"
      },
      {
        "_class": "curvePoint",
        "cornerRadius": 0,
        "curveFrom": "{0.56329684783896994, 0.063812770563807034}",
        "curveMode": 3,
        "curveTo": "{0.56329684783896994, 0.027982203137500002}",
        "hasCurveFrom": true,
        "hasCurveTo": true,
        "point": "{0.56329684783896994, 0.0625}"
      },
      {
        "_class": "curvePoint",
        "cornerRadius": 0,
        "curveFrom": "{0.81011187627626835, 0.099431039255879039}",
        "curveMode": 4,
        "curveTo": "{0.56325425789855421, 0.065116087977163339}",
        "hasCurveFrom": true,
        "hasCurveTo": true,
        "point": "{0.56317031946857588, 0.066408772473931232}"
      },
      {
        "_class": "curvePoint",
        "cornerRadius": 0,
        "curveFrom": "{0.8886582308272466, 0.49790122255392394}",
        "curveMode": 3,
        "curveTo": "{0.85087422416055458, 0.33325568033168979}",
        "hasCurveFrom": true,
        "hasCurveTo": true,
        "point": "{0.87631735642679154, 0.44412529627158631}"
      },
      {
        "_class": "curvePoint",
        "cornerRadius": 0,
        "curveFrom": "{0.99503900858603367, 0.71063825131402347}",
        "curveMode": 3,
        "curveTo": "{0.9250612840654675, 0.58085828405918416}",
        "hasCurveFrom": true,
        "hasCurveTo": true,
        "point": "{0.98552651614145448, 0.69299648078736698}"
      },
      {
        "_class": "curvePoint",
        "cornerRadius": 0,
        "curveFrom": "{1, 0.81903559450897423}",
        "curveMode": 3,
        "curveTo": "{1, 0.73017701420923065}",
        "hasCurveFrom": true,
        "hasCurveTo": true,
        "point": "{1, 0.74999999999999978}"
      },
      {
        "_class": "curvePoint",
        "cornerRadius": 0,
        "curveFrom": "{0.86846430538455499, 0.87500000141254186}",
        "curveMode": 4,
        "curveTo": "{0.94110946357906544, 0.87500000141254175}",
        "hasCurveFrom": false,
        "hasCurveTo": true,
        "point": "{0.86846430538455499, 0.87500000141254186}"
      },
      {
        "_class": "curvePoint",
        "cornerRadius": 0,
        "curveFrom": "{0.62906469440349377, 0.94403559372500001}",
        "curveMode": 4,
        "curveTo": "{0.62906469440349377, 0.87500000095364561}",
        "hasCurveFrom": true,
        "hasCurveTo": false,
        "point": "{0.62906469440349377, 0.87500000095364561}"
      },
      {
        "_class": "curvePoint",
        "cornerRadius": 0,
        "curveFrom": "{0.42488384411429131, 1}",
        "curveMode": 2,
        "curveTo": "{0.57017415864399179, 1}",
        "hasCurveFrom": true,
        "hasCurveTo": true,
        "point": "{0.49752900127444605, 1}"
      },
      {
        "_class": "curvePoint",
        "cornerRadius": 0,
        "curveFrom": "{0.36599330814539843, 0.87500000059696048}",
        "curveMode": 4,
        "curveTo": "{0.36599330848488826, 0.94403559404762127}",
        "hasCurveFrom": false,
        "hasCurveTo": true,
        "point": "{0.36599330814539843, 0.87500000059696048}"
      }
    ]
  },
  "resizingConstraint": 63,
  "resizingType": 0,
  "rotation": 0,
  "shouldBreakMaskChain": false
}