{
  "_class": "group",
  "do_objectID": "0823AA09-5F16-422F-8B62-861786945313",
  "exportOptions": {
    "_class": "exportOptions",
    "exportFormats": [
    ],
    "includedLayerIds": [
    ],
    "layerOptions": 0,
    "shouldTrim": false
  },
  "frame": {
    "_class": "rect",
    "constrainProportions": false,
    "height": 588,
    "width": 97,
    "x": 462,
    "y": 120
  },
  "hasClickThrough": false,
  "isFlippedHorizontal": false,
  "isFlippedVertical": false,
  "isLocked": false,
  "isVisible": true,
  "layerListExpandedType": 0,
  "layers": [
    {
      "class": "shapeGroup",
      "id": "C4946306-82FF-4D97-8EA3-8B2942A1EBEE"
    },
    {
      "class": "shapeGroup",
      "id": "90F84B9C-10BC-43AF-AA84-419DDA1E5CDB"
    },
    {
      "class": "shapeGroup",
      "id": "0C4FC2DD-2653-4075-8DE1-9E03867EF302"
    },
    {
      "class": "shapeGroup",
      "id": "DA764D6C-DD6C-4FA4-A900-E45230FEECDC"
    },
    {
      "class": "group",
      "id": "13331FF7-01EE-446D-89E6-C2851E287E41"
    }
  ],
  "name": "milestone copy",
  "nameIsFixed": true,
  "resizingConstraint": 63,
  "resizingType": 0,
  "rotation": 0,
  "shouldBreakMaskChain": false,
  "style": {
    "_class": "style",
    "endDecorationType": 0,
    "miterLimit": 10,
    "startDecorationType": 0
  }
}