{
  "_class": "shapeGroup",
  "clippingMaskMode": 0,
  "do_objectID": "32FBF37C-AA46-4D6C-B8DF-356C0858E346",
  "exportOptions": {
    "_class": "exportOptions",
    "exportFormats": [
    ],
    "includedLayerIds": [
    ],
    "layerOptions": 0,
    "shouldTrim": false
  },
  "frame": {
    "_class": "rect",
    "constrainProportions": false,
    "height": 16,
    "width": 14,
    "x": 1,
    "y": 0
  },
  "hasClickThrough": false,
  "hasClippingMask": true,
  "isFlippedHorizontal": false,
  "isFlippedVertical": false,
  "isLocked": false,
  "isVisible": true,
  "layerListExpandedType": 0,
  "layers": [
    {
      "class": "shapePath",
      "id": "F354A75F-760D-4BC3-98A4-4A1DD14D1B6F"
    },
    {
      "class": "shapePath",
      "id": "E49AF505-7DA7-4BF9-AC49-45F64DB080AB"
    },
    {
      "class": "shapePath",
      "id": "5B5FDE6F-1AA2-47B4-94E3-AB005BB3A00A"
    },
    {
      "class": "shapePath",
      "id": "FC1BB108-1FA8-4A6E-8157-5C3807BD039D"
    }
  ],
  "name": "Mask",
  "nameIsFixed": false,
  "resizingConstraint": 63,
  "resizingType": 0,
  "rotation": 0,
  "shouldBreakMaskChain": false,
  "style": {
    "_class": "style",
    "endDecorationType": 0,
    "fills": [
      {
        "_class": "fill",
        "color": {
          "_class": "color",
          "alpha": 1,
          "blue": 0,
          "green": 0,
          "red": 0
        },
        "fillType": 0,
        "isEnabled": true,
        "noiseIndex": 0,
        "noiseIntensity": 0,
        "patternFillType": 1,
        "patternTileScale": 1
      }
    ],
    "miterLimit": 10,
    "startDecorationType": 0
  },
  "windingRule": 0
}