{
  "_class": "shapeGroup",
  "clippingMaskMode": 0,
  "do_objectID": "FD1F4F13-A658-40A3-A9EF-33F93E3B608E",
  "exportOptions": {
    "_class": "exportOptions",
    "exportFormats": [
    ],
    "includedLayerIds": [
    ],
    "layerOptions": 0,
    "shouldTrim": false
  },
  "frame": {
    "_class": "rect",
    "constrainProportions": false,
    "height": 24,
    "width": 120,
    "x": 0,
    "y": 4
  },
  "hasClickThrough": false,
  "hasClippingMask": false,
  "isFlippedHorizontal": false,
  "isFlippedVertical": false,
  "isLocked": false,
  "isVisible": true,
  "layerListExpandedType": 1,
  "layers": [
    {
      "class": "rectangle",
      "id": "D15FF81A-1C31-4705-B5B3-9AA0AFA8039C"
    }
  ],
  "name": "Rectangle 5 Copy 5",
  "nameIsFixed": false,
  "resizingConstraint": 63,
  "resizingType": 0,
  "rotation": 0,
  "shouldBreakMaskChain": false,
  "style": {
    "sharedObjectID": "09334668-4522-4969-99CC-2D060C8F8009"
  },
  "windingRule": 1
}